^C:\Users\Vaib\Documents\Visual Studio 2013\Projects\XP_Protobuf\XP_Protobuf\XP_Protobuf.vcxproj
C:\Users\Vaib\Documents\Visual Studio 2013\Projects\XP_Protobuf\XP_Protobuf\Debug\64\Hello-World-SDK-3.lib
C:\Users\Vaib\Documents\Visual Studio 2013\Projects\XP_Protobuf\XP_Protobuf\Debug\64\Hello-World-SDK-3.exp
^C:\Users\Vaib\Documents\Visual Studio 2013\Projects\XP_Protobuf\XP_Protobuf\XP_Protobuf.vcxproj
C:\Users\Vaib\Documents\Visual Studio 2013\Projects\XP_Protobuf\XP_Protobuf\Debug\64\Hello-World-SDK-3.lib
C:\Users\Vaib\Documents\Visual Studio 2013\Projects\XP_Protobuf\XP_Protobuf\Debug\64\Hello-World-SDK-3.exp
^C:\Users\Vaib\Documents\Visual Studio 2013\Projects\XP_Protobuf\XP_Protobuf\XP_Protobuf.vcxproj
C:\Users\Vaib\Documents\Visual Studio 2013\Projects\XP_Protobuf\XP_Protobuf\Debug\64\Hello-World-SDK-3.lib
C:\Users\Vaib\Documents\Visual Studio 2013\Projects\XP_Protobuf\XP_Protobuf\Debug\64\Hello-World-SDK-3.exp
^C:\Users\Vaib\Documents\Visual Studio 2013\Projects\XP_Protobuf\XP_Protobuf\XP_Protobuf.vcxproj
C:\Users\Vaib\Documents\Visual Studio 2013\Projects\XP_Protobuf\XP_Protobuf\Debug\64\Hello-World-SDK-3.lib
C:\Users\Vaib\Documents\Visual Studio 2013\Projects\XP_Protobuf\XP_Protobuf\Debug\64\Hello-World-SDK-3.exp
^C:\Users\Vaib\Documents\Visual Studio 2013\Projects\XP_Protobuf\XP_Protobuf\XP_Protobuf.vcxproj
C:\Users\Vaib\Documents\Visual Studio 2013\Projects\XP_Protobuf\XP_Protobuf\Debug\64\Hello-World-SDK-3.lib
C:\Users\Vaib\Documents\Visual Studio 2013\Projects\XP_Protobuf\XP_Protobuf\Debug\64\Hello-World-SDK-3.exp
^C:\Users\Vaib\Documents\Visual Studio 2013\Projects\XP_Protobuf\XP_Protobuf\XP_Protobuf.vcxproj
C:\Users\Vaib\Documents\Visual Studio 2013\Projects\XP_Protobuf\XP_Protobuf\Debug\64\Hello-World-SDK-3.lib
C:\Users\Vaib\Documents\Visual Studio 2013\Projects\XP_Protobuf\XP_Protobuf\Debug\64\Hello-World-SDK-3.exp
^C:\Users\Vaib\Documents\Visual Studio 2013\Projects\XP_Protobuf\XP_Protobuf\XP_Protobuf.vcxproj
C:\Users\Vaib\Documents\Visual Studio 2013\Projects\XP_Protobuf\XP_Protobuf\Debug\64\Hello-World-SDK-3.lib
C:\Users\Vaib\Documents\Visual Studio 2013\Projects\XP_Protobuf\XP_Protobuf\Debug\64\Hello-World-SDK-3.exp
^C:\Users\Vaib\Documents\Visual Studio 2013\Projects\XP_Protobuf\XP_Protobuf\XP_Protobuf.vcxproj
C:\Users\Vaib\Documents\Visual Studio 2013\Projects\XP_Protobuf\XP_Protobuf\Debug\64\Hello-World-SDK-3.lib
C:\Users\Vaib\Documents\Visual Studio 2013\Projects\XP_Protobuf\XP_Protobuf\Debug\64\Hello-World-SDK-3.exp
^C:\Users\Vaib\Documents\Visual Studio 2013\Projects\XP_Protobuf\XP_Protobuf\XP_Protobuf.vcxproj
C:\Users\Vaib\Documents\Visual Studio 2013\Projects\XP_Protobuf\XP_Protobuf\Debug\64\Hello-World-SDK-3.lib
C:\Users\Vaib\Documents\Visual Studio 2013\Projects\XP_Protobuf\XP_Protobuf\Debug\64\Hello-World-SDK-3.exp
^C:\Users\Vaib\Documents\Visual Studio 2013\Projects\XP_Protobuf\XP_Protobuf\XP_Protobuf.vcxproj
C:\Users\Vaib\Documents\Visual Studio 2013\Projects\XP_Protobuf\XP_Protobuf\Debug\64\Hello-World-SDK-3.lib
C:\Users\Vaib\Documents\Visual Studio 2013\Projects\XP_Protobuf\XP_Protobuf\Debug\64\Hello-World-SDK-3.exp
^C:\Users\Vaib\Documents\Visual Studio 2013\Projects\XP_Protobuf\XP_Protobuf\XP_Protobuf.vcxproj
C:\Users\Vaib\Documents\Visual Studio 2013\Projects\XP_Protobuf\XP_Protobuf\Debug\64\Hello-World-SDK-3.lib
C:\Users\Vaib\Documents\Visual Studio 2013\Projects\XP_Protobuf\XP_Protobuf\Debug\64\Hello-World-SDK-3.exp
^C:\Users\Vaib\Documents\Visual Studio 2013\Projects\XP_Protobuf\XP_Protobuf\XP_Protobuf.vcxproj
C:\Users\Vaib\Documents\Visual Studio 2013\Projects\XP_Protobuf\XP_Protobuf\Debug\64\Hello-World-SDK-3.lib
C:\Users\Vaib\Documents\Visual Studio 2013\Projects\XP_Protobuf\XP_Protobuf\Debug\64\Hello-World-SDK-3.exp
^C:\Users\Vaib\Documents\Visual Studio 2013\Projects\XP_Protobuf\XP_Protobuf\XP_Protobuf.vcxproj
C:\Users\Vaib\Documents\Visual Studio 2013\Projects\XP_Protobuf\XP_Protobuf\Debug\64\Hello-World-SDK-3.lib
C:\Users\Vaib\Documents\Visual Studio 2013\Projects\XP_Protobuf\XP_Protobuf\Debug\64\Hello-World-SDK-3.exp
^C:\Users\Vaib\Documents\Visual Studio 2013\Projects\XP_Protobuf\XP_Protobuf\XP_Protobuf.vcxproj
C:\Users\Vaib\Documents\Visual Studio 2013\Projects\XP_Protobuf\XP_Protobuf\Debug\64\Hello-World-SDK-3.lib
C:\Users\Vaib\Documents\Visual Studio 2013\Projects\XP_Protobuf\XP_Protobuf\Debug\64\Hello-World-SDK-3.exp
^C:\Users\Vaib\Documents\Visual Studio 2013\Projects\XP_Protobuf\XP_Protobuf\XP_Protobuf.vcxproj
C:\Users\Vaib\Documents\Visual Studio 2013\Projects\XP_Protobuf\XP_Protobuf\Debug\64\Hello-World-SDK-3.lib
C:\Users\Vaib\Documents\Visual Studio 2013\Projects\XP_Protobuf\XP_Protobuf\Debug\64\Hello-World-SDK-3.exp
^C:\Users\Vaib\Documents\Visual Studio 2013\Projects\XP_Protobuf\XP_Protobuf\XP_Protobuf.vcxproj
C:\Users\Vaib\Documents\Visual Studio 2013\Projects\XP_Protobuf\XP_Protobuf\Debug\64\Hello-World-SDK-3.lib
C:\Users\Vaib\Documents\Visual Studio 2013\Projects\XP_Protobuf\XP_Protobuf\Debug\64\Hello-World-SDK-3.exp
^C:\Users\Vaib\Documents\Visual Studio 2013\Projects\XP_Protobuf\XP_Protobuf\XP_Protobuf.vcxproj
C:\Users\Vaib\Documents\Visual Studio 2013\Projects\XP_Protobuf\XP_Protobuf\Debug\64\Hello-World-SDK-3.lib
C:\Users\Vaib\Documents\Visual Studio 2013\Projects\XP_Protobuf\XP_Protobuf\Debug\64\Hello-World-SDK-3.exp
^C:\Users\Vaib\Documents\Visual Studio 2013\Projects\XP_Protobuf\XP_Protobuf\XP_Protobuf.vcxproj
C:\Users\Vaib\Documents\Visual Studio 2013\Projects\XP_Protobuf\XP_Protobuf\Debug\64\Hello-World-SDK-3.lib
C:\Users\Vaib\Documents\Visual Studio 2013\Projects\XP_Protobuf\XP_Protobuf\Debug\64\Hello-World-SDK-3.exp
^C:\Users\Vaib\Documents\Visual Studio 2013\Projects\XP_Protobuf\XP_Protobuf\XP_Protobuf.vcxproj
C:\Users\Vaib\Documents\Visual Studio 2013\Projects\XP_Protobuf\XP_Protobuf\Debug\64\Hello-World-SDK-3.lib
C:\Users\Vaib\Documents\Visual Studio 2013\Projects\XP_Protobuf\XP_Protobuf\Debug\64\Hello-World-SDK-3.exp
^C:\Users\Vaib\Documents\Visual Studio 2013\Projects\XP_Protobuf\XP_Protobuf\XP_Protobuf.vcxproj
C:\Users\Vaib\Documents\Visual Studio 2013\Projects\XP_Protobuf\XP_Protobuf\Debug\64\Hello-World-SDK-3.lib
C:\Users\Vaib\Documents\Visual Studio 2013\Projects\XP_Protobuf\XP_Protobuf\Debug\64\Hello-World-SDK-3.exp
^C:\Users\Vaib\Documents\Visual Studio 2013\Projects\XP_Protobuf\XP_Protobuf\XP_Protobuf.vcxproj
C:\Users\Vaib\Documents\Visual Studio 2013\Projects\XP_Protobuf\XP_Protobuf\Debug\64\Hello-World-SDK-3.lib
C:\Users\Vaib\Documents\Visual Studio 2013\Projects\XP_Protobuf\XP_Protobuf\Debug\64\Hello-World-SDK-3.exp
^C:\Users\Vaib\Documents\Visual Studio 2013\Projects\XP_Protobuf\XP_Protobuf\XP_Protobuf.vcxproj
C:\Users\Vaib\Documents\Visual Studio 2013\Projects\XP_Protobuf\XP_Protobuf\Debug\64\Hello-World-SDK-3.lib
C:\Users\Vaib\Documents\Visual Studio 2013\Projects\XP_Protobuf\XP_Protobuf\Debug\64\Hello-World-SDK-3.exp
^C:\Users\Vaib\Documents\Visual Studio 2013\Projects\XP_Protobuf\XP_Protobuf\XP_Protobuf.vcxproj
C:\Users\Vaib\Documents\Visual Studio 2013\Projects\XP_Protobuf\XP_Protobuf\Debug\64\Hello-World-SDK-3.lib
C:\Users\Vaib\Documents\Visual Studio 2013\Projects\XP_Protobuf\XP_Protobuf\Debug\64\Hello-World-SDK-3.exp
^C:\Users\Vaib\Documents\Visual Studio 2013\Projects\XP_Protobuf\XP_Protobuf\XP_Protobuf.vcxproj
C:\Users\Vaib\Documents\Visual Studio 2013\Projects\XP_Protobuf\XP_Protobuf\Debug\64\Hello-World-SDK-3.lib
C:\Users\Vaib\Documents\Visual Studio 2013\Projects\XP_Protobuf\XP_Protobuf\Debug\64\Hello-World-SDK-3.exp
^C:\Users\Vaib\Documents\Visual Studio 2013\Projects\XP_Protobuf\XP_Protobuf\XP_Protobuf.vcxproj
C:\Users\Vaib\Documents\Visual Studio 2013\Projects\XP_Protobuf\XP_Protobuf\Debug\64\Hello-World-SDK-3.lib
C:\Users\Vaib\Documents\Visual Studio 2013\Projects\XP_Protobuf\XP_Protobuf\Debug\64\Hello-World-SDK-3.exp
^C:\Users\Vaib\Documents\Visual Studio 2013\Projects\XP_Protobuf\XP_Protobuf\XP_Protobuf.vcxproj
C:\Users\Vaib\Documents\Visual Studio 2013\Projects\XP_Protobuf\XP_Protobuf\Debug\64\Hello-World-SDK-3.lib
C:\Users\Vaib\Documents\Visual Studio 2013\Projects\XP_Protobuf\XP_Protobuf\Debug\64\Hello-World-SDK-3.exp
^C:\Users\Vaib\Documents\Visual Studio 2013\Projects\XP_Protobuf\XP_Protobuf\XP_Protobuf.vcxproj
C:\Users\Vaib\Documents\Visual Studio 2013\Projects\XP_Protobuf\XP_Protobuf\Debug\64\Hello-World-SDK-3.lib
C:\Users\Vaib\Documents\Visual Studio 2013\Projects\XP_Protobuf\XP_Protobuf\Debug\64\Hello-World-SDK-3.exp
^C:\Users\Vaib\Documents\Visual Studio 2013\Projects\XP_Protobuf\XP_Protobuf\XP_Protobuf.vcxproj
C:\Users\Vaib\Documents\Visual Studio 2013\Projects\XP_Protobuf\XP_Protobuf\Debug\64\Hello-World-SDK-3.lib
C:\Users\Vaib\Documents\Visual Studio 2013\Projects\XP_Protobuf\XP_Protobuf\Debug\64\Hello-World-SDK-3.exp
^C:\Users\Vaib\Documents\Visual Studio 2013\Projects\XP_Protobuf\XP_Protobuf\XP_Protobuf.vcxproj
C:\Users\Vaib\Documents\Visual Studio 2013\Projects\XP_Protobuf\XP_Protobuf\Debug\64\Hello-World-SDK-3.lib
C:\Users\Vaib\Documents\Visual Studio 2013\Projects\XP_Protobuf\XP_Protobuf\Debug\64\Hello-World-SDK-3.exp
^C:\Users\Vaib\Documents\Visual Studio 2013\Projects\XP_Protobuf\XP_Protobuf\XP_Protobuf.vcxproj
C:\Users\Vaib\Documents\Visual Studio 2013\Projects\XP_Protobuf\XP_Protobuf\Debug\64\Hello-World-SDK-3.lib
C:\Users\Vaib\Documents\Visual Studio 2013\Projects\XP_Protobuf\XP_Protobuf\Debug\64\Hello-World-SDK-3.exp
^C:\Users\Vaib\Documents\Visual Studio 2013\Projects\XP_Protobuf\XP_Protobuf\XP_Protobuf.vcxproj
C:\Users\Vaib\Documents\Visual Studio 2013\Projects\XP_Protobuf\XP_Protobuf\Debug\64\Hello-World-SDK-3.lib
C:\Users\Vaib\Documents\Visual Studio 2013\Projects\XP_Protobuf\XP_Protobuf\Debug\64\Hello-World-SDK-3.exp
^C:\Users\Vaib\Documents\Visual Studio 2013\Projects\XP_Protobuf\XP_Protobuf\XP_Protobuf.vcxproj
C:\Users\Vaib\Documents\Visual Studio 2013\Projects\XP_Protobuf\XP_Protobuf\Debug\64\Hello-World-SDK-3.lib
C:\Users\Vaib\Documents\Visual Studio 2013\Projects\XP_Protobuf\XP_Protobuf\Debug\64\Hello-World-SDK-3.exp
^C:\Users\Vaib\Documents\Visual Studio 2013\Projects\XP_Protobuf\XP_Protobuf\XP_Protobuf.vcxproj
C:\Users\Vaib\Documents\Visual Studio 2013\Projects\XP_Protobuf\XP_Protobuf\Debug\64\Hello-World-SDK-3.lib
C:\Users\Vaib\Documents\Visual Studio 2013\Projects\XP_Protobuf\XP_Protobuf\Debug\64\Hello-World-SDK-3.exp
^C:\Users\Vaib\Documents\Visual Studio 2013\Projects\XP_Protobuf\XP_Protobuf\XP_Protobuf.vcxproj
C:\Users\Vaib\Documents\Visual Studio 2013\Projects\XP_Protobuf\XP_Protobuf\Debug\64\Hello-World-SDK-3.lib
C:\Users\Vaib\Documents\Visual Studio 2013\Projects\XP_Protobuf\XP_Protobuf\Debug\64\Hello-World-SDK-3.exp
^C:\Users\Vaib\Documents\Visual Studio 2013\Projects\XP_Protobuf\XP_Protobuf\XP_Protobuf.vcxproj
C:\Users\Vaib\Documents\Visual Studio 2013\Projects\XP_Protobuf\XP_Protobuf\Debug\64\Hello-World-SDK-3.lib
C:\Users\Vaib\Documents\Visual Studio 2013\Projects\XP_Protobuf\XP_Protobuf\Debug\64\Hello-World-SDK-3.exp
^C:\Users\Vaib\Documents\Visual Studio 2013\Projects\XP_Protobuf\XP_Protobuf\XP_Protobuf.vcxproj
C:\Users\Vaib\Documents\Visual Studio 2013\Projects\XP_Protobuf\XP_Protobuf\Debug\64\Hello-World-SDK-3.lib
C:\Users\Vaib\Documents\Visual Studio 2013\Projects\XP_Protobuf\XP_Protobuf\Debug\64\Hello-World-SDK-3.exp
^C:\Users\Vaib\Documents\Visual Studio 2013\Projects\XP_Protobuf\XP_Protobuf\XP_Protobuf.vcxproj
C:\Users\Vaib\Documents\Visual Studio 2013\Projects\XP_Protobuf\XP_Protobuf\Debug\64\Hello-World-SDK-3.lib
C:\Users\Vaib\Documents\Visual Studio 2013\Projects\XP_Protobuf\XP_Protobuf\Debug\64\Hello-World-SDK-3.exp
^C:\Users\Vaib\Documents\Visual Studio 2013\Projects\XP_Protobuf\XP_Protobuf\XP_Protobuf.vcxproj
C:\Users\Vaib\Documents\Visual Studio 2013\Projects\XP_Protobuf\XP_Protobuf\Debug\64\Hello-World-SDK-3.lib
C:\Users\Vaib\Documents\Visual Studio 2013\Projects\XP_Protobuf\XP_Protobuf\Debug\64\Hello-World-SDK-3.exp
^C:\Users\Vaib\Documents\Visual Studio 2013\Projects\XP_Protobuf\XP_Protobuf\XP_Protobuf.vcxproj
C:\Users\Vaib\Documents\Visual Studio 2013\Projects\XP_Protobuf\XP_Protobuf\Debug\64\Hello-World-SDK-3.lib
C:\Users\Vaib\Documents\Visual Studio 2013\Projects\XP_Protobuf\XP_Protobuf\Debug\64\Hello-World-SDK-3.exp
^C:\Users\Vaib\Documents\Visual Studio 2013\Projects\XP_Protobuf\XP_Protobuf\XP_Protobuf.vcxproj
C:\Users\Vaib\Documents\Visual Studio 2013\Projects\XP_Protobuf\XP_Protobuf\Debug\64\Hello-World-SDK-3.lib
C:\Users\Vaib\Documents\Visual Studio 2013\Projects\XP_Protobuf\XP_Protobuf\Debug\64\Hello-World-SDK-3.exp
^C:\Users\Vaib\Documents\Visual Studio 2013\Projects\XP_Protobuf\XP_Protobuf\XP_Protobuf.vcxproj
C:\Users\Vaib\Documents\Visual Studio 2013\Projects\XP_Protobuf\XP_Protobuf\Debug\64\Hello-World-SDK-3.lib
C:\Users\Vaib\Documents\Visual Studio 2013\Projects\XP_Protobuf\XP_Protobuf\Debug\64\Hello-World-SDK-3.exp
^C:\Users\Vaib\Documents\Visual Studio 2013\Projects\XP_Protobuf\XP_Protobuf\XP_Protobuf.vcxproj
C:\Users\Vaib\Documents\Visual Studio 2013\Projects\XP_Protobuf\XP_Protobuf\Debug\64\Hello-World-SDK-3.lib
C:\Users\Vaib\Documents\Visual Studio 2013\Projects\XP_Protobuf\XP_Protobuf\Debug\64\Hello-World-SDK-3.exp
^C:\Users\Vaib\Documents\Visual Studio 2013\Projects\XP_Protobuf\XP_Protobuf\XP_Protobuf.vcxproj
C:\Users\Vaib\Documents\Visual Studio 2013\Projects\XP_Protobuf\XP_Protobuf\Debug\64\Hello-World-SDK-3.lib
C:\Users\Vaib\Documents\Visual Studio 2013\Projects\XP_Protobuf\XP_Protobuf\Debug\64\Hello-World-SDK-3.exp
^C:\Users\Vaib\Documents\Visual Studio 2013\Projects\XP_Protobuf\XP_Protobuf\XP_Protobuf.vcxproj
C:\Users\Vaib\Documents\Visual Studio 2013\Projects\XP_Protobuf\XP_Protobuf\Debug\64\Hello-World-SDK-3.lib
C:\Users\Vaib\Documents\Visual Studio 2013\Projects\XP_Protobuf\XP_Protobuf\Debug\64\Hello-World-SDK-3.exp
^C:\Users\Vaib\Documents\Visual Studio 2013\Projects\XP_Protobuf\XP_Protobuf\XP_Protobuf.vcxproj
C:\Users\Vaib\Documents\Visual Studio 2013\Projects\XP_Protobuf\XP_Protobuf\Debug\64\Hello-World-SDK-3.lib
C:\Users\Vaib\Documents\Visual Studio 2013\Projects\XP_Protobuf\XP_Protobuf\Debug\64\Hello-World-SDK-3.exp
^C:\Users\Vaib\Documents\Visual Studio 2013\Projects\XP_Protobuf\XP_Protobuf\XP_Protobuf.vcxproj
C:\Users\Vaib\Documents\Visual Studio 2013\Projects\XP_Protobuf\XP_Protobuf\Debug\64\Hello-World-SDK-3.lib
C:\Users\Vaib\Documents\Visual Studio 2013\Projects\XP_Protobuf\XP_Protobuf\Debug\64\Hello-World-SDK-3.exp
^C:\Users\Vaib\Documents\Visual Studio 2013\Projects\XP_Protobuf\XP_Protobuf\XP_Protobuf.vcxproj
C:\Users\Vaib\Documents\Visual Studio 2013\Projects\XP_Protobuf\XP_Protobuf\Debug\64\Hello-World-SDK-3.lib
C:\Users\Vaib\Documents\Visual Studio 2013\Projects\XP_Protobuf\XP_Protobuf\Debug\64\Hello-World-SDK-3.exp
^C:\Users\Vaib\Documents\Visual Studio 2013\Projects\XP_Protobuf\XP_Protobuf\XP_Protobuf.vcxproj
C:\Users\Vaib\Documents\Visual Studio 2013\Projects\XP_Protobuf\XP_Protobuf\Debug\64\Hello-World-SDK-3.lib
C:\Users\Vaib\Documents\Visual Studio 2013\Projects\XP_Protobuf\XP_Protobuf\Debug\64\Hello-World-SDK-3.exp
^C:\Users\Vaib\Documents\Visual Studio 2013\Projects\XP_Protobuf\XP_Protobuf\XP_Protobuf.vcxproj
C:\Users\Vaib\Documents\Visual Studio 2013\Projects\XP_Protobuf\XP_Protobuf\Debug\64\Hello-World-SDK-3.lib
C:\Users\Vaib\Documents\Visual Studio 2013\Projects\XP_Protobuf\XP_Protobuf\Debug\64\Hello-World-SDK-3.exp
^C:\Users\Vaib\Documents\Visual Studio 2013\Projects\XP_Protobuf\XP_Protobuf\XP_Protobuf.vcxproj
C:\Users\Vaib\Documents\Visual Studio 2013\Projects\XP_Protobuf\XP_Protobuf\Debug\64\Hello-World-SDK-3.lib
C:\Users\Vaib\Documents\Visual Studio 2013\Projects\XP_Protobuf\XP_Protobuf\Debug\64\Hello-World-SDK-3.exp
^C:\Users\Vaib\Documents\Visual Studio 2013\Projects\XP_Protobuf\XP_Protobuf\XP_Protobuf.vcxproj
C:\Users\Vaib\Documents\Visual Studio 2013\Projects\XP_Protobuf\XP_Protobuf\Debug\64\Hello-World-SDK-3.lib
C:\Users\Vaib\Documents\Visual Studio 2013\Projects\XP_Protobuf\XP_Protobuf\Debug\64\Hello-World-SDK-3.exp
^C:\Users\Vaib\Documents\Visual Studio 2013\Projects\XP_Protobuf\XP_Protobuf\XP_Protobuf.vcxproj
C:\Users\Vaib\Documents\Visual Studio 2013\Projects\XP_Protobuf\XP_Protobuf\Debug\64\Hello-World-SDK-3.lib
C:\Users\Vaib\Documents\Visual Studio 2013\Projects\XP_Protobuf\XP_Protobuf\Debug\64\Hello-World-SDK-3.exp
^C:\Users\Vaib\Documents\Visual Studio 2013\Projects\XP_Protobuf\XP_Protobuf\XP_Protobuf.vcxproj
C:\Users\Vaib\Documents\Visual Studio 2013\Projects\XP_Protobuf\XP_Protobuf\Debug\64\Hello-World-SDK-3.lib
C:\Users\Vaib\Documents\Visual Studio 2013\Projects\XP_Protobuf\XP_Protobuf\Debug\64\Hello-World-SDK-3.exp
^C:\Users\Vaib\Documents\Visual Studio 2013\Projects\XP_Protobuf\XP_Protobuf\XP_Protobuf.vcxproj
C:\Users\Vaib\Documents\Visual Studio 2013\Projects\XP_Protobuf\XP_Protobuf\Debug\64\Hello-World-SDK-3.lib
C:\Users\Vaib\Documents\Visual Studio 2013\Projects\XP_Protobuf\XP_Protobuf\Debug\64\Hello-World-SDK-3.exp
^C:\Users\Vaib\Documents\Visual Studio 2013\Projects\XP_Protobuf\XP_Protobuf\XP_Protobuf.vcxproj
C:\Users\Vaib\Documents\Visual Studio 2013\Projects\XP_Protobuf\XP_Protobuf\Debug\64\Hello-World-SDK-3.lib
C:\Users\Vaib\Documents\Visual Studio 2013\Projects\XP_Protobuf\XP_Protobuf\Debug\64\Hello-World-SDK-3.exp
^C:\Users\Vaib\Documents\Visual Studio 2013\Projects\XP_Protobuf\XP_Protobuf\XP_Protobuf.vcxproj
C:\Users\Vaib\Documents\Visual Studio 2013\Projects\XP_Protobuf\XP_Protobuf\Debug\64\Hello-World-SDK-3.lib
C:\Users\Vaib\Documents\Visual Studio 2013\Projects\XP_Protobuf\XP_Protobuf\Debug\64\Hello-World-SDK-3.exp
^C:\Users\Vaib\Documents\Visual Studio 2013\Projects\XP_Protobuf\XP_Protobuf\XP_Protobuf.vcxproj
C:\Users\Vaib\Documents\Visual Studio 2013\Projects\XP_Protobuf\XP_Protobuf\Debug\64\Hello-World-SDK-3.lib
C:\Users\Vaib\Documents\Visual Studio 2013\Projects\XP_Protobuf\XP_Protobuf\Debug\64\Hello-World-SDK-3.exp
^C:\Users\Vaib\Documents\Visual Studio 2013\Projects\XP_Protobuf\XP_Protobuf\XP_Protobuf.vcxproj
C:\Users\Vaib\Documents\Visual Studio 2013\Projects\XP_Protobuf\XP_Protobuf\Debug\64\Hello-World-SDK-3.lib
C:\Users\Vaib\Documents\Visual Studio 2013\Projects\XP_Protobuf\XP_Protobuf\Debug\64\Hello-World-SDK-3.exp
^C:\Users\Vaib\Documents\Visual Studio 2013\Projects\XP_Protobuf\XP_Protobuf\XP_Protobuf.vcxproj
C:\Users\Vaib\Documents\Visual Studio 2013\Projects\XP_Protobuf\XP_Protobuf\Debug\64\Hello-World-SDK-3.lib
C:\Users\Vaib\Documents\Visual Studio 2013\Projects\XP_Protobuf\XP_Protobuf\Debug\64\Hello-World-SDK-3.exp
^C:\Users\Vaib\Documents\Visual Studio 2013\Projects\XP_Protobuf\XP_Protobuf\XP_Protobuf.vcxproj
C:\Users\Vaib\Documents\Visual Studio 2013\Projects\XP_Protobuf\XP_Protobuf\Debug\64\Hello-World-SDK-3.lib
C:\Users\Vaib\Documents\Visual Studio 2013\Projects\XP_Protobuf\XP_Protobuf\Debug\64\Hello-World-SDK-3.exp
^C:\Users\Vaib\Documents\Visual Studio 2013\Projects\XP_Protobuf\XP_Protobuf\XP_Protobuf.vcxproj
C:\Users\Vaib\Documents\Visual Studio 2013\Projects\XP_Protobuf\XP_Protobuf\Debug\64\Hello-World-SDK-3.lib
C:\Users\Vaib\Documents\Visual Studio 2013\Projects\XP_Protobuf\XP_Protobuf\Debug\64\Hello-World-SDK-3.exp
